
--- KOMPILACJA z /media/sf_PMlin/Tests/Added	pią, 22 mar 2019, 23:09:48 CET
g++-7 -S -std=c++17 -fverbose-asm -o ../Bin/./ByteType/ByteType.cpp.g++-7.s ./ByteType/ByteType.cpp >> ../Logs/errors.txt	t = 0.056
g++-7 -o ../Bin/./ByteType/ByteType.cpp.g++-7.sh ../Bin/./ByteType/ByteType.cpp.g++-7.s >> ../Logs/errors.txt	t = 0.045
g++-7 -S -std=c++17 -fverbose-asm -o ../Bin/./ByteType/NoByteType.cpp.g++-7.s ./ByteType/NoByteType.cpp >> ../Logs/errors.txt	t = 0.039
g++-7 -o ../Bin/./ByteType/NoByteType.cpp.g++-7.sh ../Bin/./ByteType/NoByteType.cpp.g++-7.s >> ../Logs/errors.txt	t = 0.047
g++-7 -S -std=c++17 -fverbose-asm -o ../Bin/./Charconv/Charconv.cpp.g++-7.s ./Charconv/Charconv.cpp >> ../Logs/errors.txt 	[EXECUTION ERROR]
g++-7 -o ../Bin/./Charconv/Charconv.cpp.g++-7.sh ../Bin/./Charconv/Charconv.cpp.g++-7.s >> ../Logs/errors.txt 	[EXECUTION ERROR]
g++-7 -S -std=c++17 -fverbose-asm -o ../Bin/./Charconv/NoCharconvStringstream.cpp.g++-7.s ./Charconv/NoCharconvStringstream.cpp >> ../Logs/errors.txt	t = 0.406
g++-7 -o ../Bin/./Charconv/NoCharconvStringstream.cpp.g++-7.sh ../Bin/./Charconv/NoCharconvStringstream.cpp.g++-7.s >> ../Logs/errors.txt	t = 0.104
g++-7 -S -std=c++17 -fverbose-asm -o ../Bin/./Charconv/NoCharconvStrtod_to_string.cpp.g++-7.s ./Charconv/NoCharconvStrtod_to_string.cpp >> ../Logs/errors.txt	t = 0.443
g++-7 -o ../Bin/./Charconv/NoCharconvStrtod_to_string.cpp.g++-7.sh ../Bin/./Charconv/NoCharconvStrtod_to_string.cpp.g++-7.s >> ../Logs/errors.txt	t = 0.111
g++-7 -S -std=c++17 -fverbose-asm -o ../Bin/./Filesystem/FileSystem.cpp.g++-7.s ./Filesystem/FileSystem.cpp >> ../Logs/errors.txt 	[EXECUTION ERROR]
g++-7 -o ../Bin/./Filesystem/FileSystem.cpp.g++-7.sh ../Bin/./Filesystem/FileSystem.cpp.g++-7.s >> ../Logs/errors.txt 	[EXECUTION ERROR]
g++-7 -S -std=c++17 -fverbose-asm -o ../Bin/./Filesystem/NoFileSystem.cpp.g++-7.s ./Filesystem/NoFileSystem.cpp >> ../Logs/errors.txt	t = 0.470
g++-7 -o ../Bin/./Filesystem/NoFileSystem.cpp.g++-7.sh ../Bin/./Filesystem/NoFileSystem.cpp.g++-7.s >> ../Logs/errors.txt	t = 0.110
g++-7 -S -std=c++17 -fverbose-asm -o ../Bin/./FoldExpressions/FoldExpressions.cpp.g++-7.s ./FoldExpressions/FoldExpressions.cpp >> ../Logs/errors.txt	t = 0.040
g++-7 -o ../Bin/./FoldExpressions/FoldExpressions.cpp.g++-7.sh ../Bin/./FoldExpressions/FoldExpressions.cpp.g++-7.s >> ../Logs/errors.txt	t = 0.045
g++-7 -S -std=c++17 -fverbose-asm -o ../Bin/./FoldExpressions/NoFoldExpressions.cpp.g++-7.s ./FoldExpressions/NoFoldExpressions.cpp >> ../Logs/errors.txt	t = 0.045
g++-7 -o ../Bin/./FoldExpressions/NoFoldExpressions.cpp.g++-7.sh ../Bin/./FoldExpressions/NoFoldExpressions.cpp.g++-7.s >> ../Logs/errors.txt	t = 0.056
g++-7 -S -std=c++17 -fverbose-asm -o ../Bin/./Ifconstexpr/IfConstexpr.cpp.g++-7.s ./Ifconstexpr/IfConstexpr.cpp >> ../Logs/errors.txt	t = 0.411
g++-7 -o ../Bin/./Ifconstexpr/IfConstexpr.cpp.g++-7.sh ../Bin/./Ifconstexpr/IfConstexpr.cpp.g++-7.s >> ../Logs/errors.txt	t = 0.098
g++-7 -S -std=c++17 -fverbose-asm -o ../Bin/./Ifconstexpr/NoIfConstexprAltern.cpp.g++-7.s ./Ifconstexpr/NoIfConstexprAltern.cpp >> ../Logs/errors.txt	t = 0.420
g++-7 -o ../Bin/./Ifconstexpr/NoIfConstexprAltern.cpp.g++-7.sh ../Bin/./Ifconstexpr/NoIfConstexprAltern.cpp.g++-7.s >> ../Logs/errors.txt	t = 0.110
g++-7 -S -std=c++17 -fverbose-asm -o ../Bin/./Ifconstexpr/NoIfConstexprExpectedError.cpp.g++-7.s ./Ifconstexpr/NoIfConstexprExpectedError.cpp >> ../Logs/errors.txt 	[EXECUTION ERROR]
g++-7 -o ../Bin/./Ifconstexpr/NoIfConstexprExpectedError.cpp.g++-7.sh ../Bin/./Ifconstexpr/NoIfConstexprExpectedError.cpp.g++-7.s >> ../Logs/errors.txt 	[EXECUTION ERROR]
g++-7 -S -std=c++17 -fverbose-asm -o ../Bin/./Inline/Inline.cpp.g++-7.s ./Inline/Inline.cpp >> ../Logs/errors.txt	t = 0.403
g++-7 -o ../Bin/./Inline/Inline.cpp.g++-7.sh ../Bin/./Inline/Inline.cpp.g++-7.s >> ../Logs/errors.txt	t = 0.100
g++-7 -S -std=c++17 -fverbose-asm -o ../Bin/./NewAtributes/newAttributes.cpp.g++-7.s ./NewAtributes/newAttributes.cpp >> ../Logs/errors.txt	t = 0.041
g++-7 -o ../Bin/./NewAtributes/newAttributes.cpp.g++-7.sh ../Bin/./NewAtributes/newAttributes.cpp.g++-7.s >> ../Logs/errors.txt	t = 0.047
g++-7 -S -std=c++17 -fverbose-asm -o ../Bin/./Parallell/Par.cpp.g++-7.s ./Parallell/Par.cpp >> ../Logs/errors.txt 	[EXECUTION ERROR]
g++-7 -o ../Bin/./Parallell/Par.cpp.g++-7.sh ../Bin/./Parallell/Par.cpp.g++-7.s >> ../Logs/errors.txt 	[EXECUTION ERROR]
g++-7 -S -std=c++17 -fverbose-asm -o ../Bin/./Parallell/ParUnseq.cpp.g++-7.s ./Parallell/ParUnseq.cpp >> ../Logs/errors.txt 	[EXECUTION ERROR]
g++-7 -o ../Bin/./Parallell/ParUnseq.cpp.g++-7.sh ../Bin/./Parallell/ParUnseq.cpp.g++-7.s >> ../Logs/errors.txt 	[EXECUTION ERROR]
g++-7 -S -std=c++17 -fverbose-asm -o ../Bin/./Parallell/Seq.cpp.g++-7.s ./Parallell/Seq.cpp >> ../Logs/errors.txt 	[EXECUTION ERROR]
g++-7 -o ../Bin/./Parallell/Seq.cpp.g++-7.sh ../Bin/./Parallell/Seq.cpp.g++-7.s >> ../Logs/errors.txt 	[EXECUTION ERROR]
g++-7 -S -std=c++17 -fverbose-asm -o ../Bin/./StringView/NoStringView.cpp.g++-7.s ./StringView/NoStringView.cpp >> ../Logs/errors.txt	t = 0.441
g++-7 -o ../Bin/./StringView/NoStringView.cpp.g++-7.sh ../Bin/./StringView/NoStringView.cpp.g++-7.s >> ../Logs/errors.txt	t = 0.101
g++-7 -S -std=c++17 -fverbose-asm -o ../Bin/./StringView/StringView.cpp.g++-7.s ./StringView/StringView.cpp >> ../Logs/errors.txt	t = 0.419
g++-7 -o ../Bin/./StringView/StringView.cpp.g++-7.sh ../Bin/./StringView/StringView.cpp.g++-7.s >> ../Logs/errors.txt	t = 0.109
g++-7 -S -std=c++17 -fverbose-asm -o ../Bin/./StructuredBindings/NoStructuredBindings.cpp.g++-7.s ./StructuredBindings/NoStructuredBindings.cpp >> ../Logs/errors.txt	t = 0.586
g++-7 -o ../Bin/./StructuredBindings/NoStructuredBindings.cpp.g++-7.sh ../Bin/./StructuredBindings/NoStructuredBindings.cpp.g++-7.s >> ../Logs/errors.txt	t = 0.115
g++-7 -S -std=c++17 -fverbose-asm -o ../Bin/./StructuredBindings/Structuredbindings.cpp.g++-7.s ./StructuredBindings/Structuredbindings.cpp >> ../Logs/errors.txt	t = 0.572
g++-7 -o ../Bin/./StructuredBindings/Structuredbindings.cpp.g++-7.sh ../Bin/./StructuredBindings/Structuredbindings.cpp.g++-7.s >> ../Logs/errors.txt	t = 0.127
g++-7 -S -std=c++17 -fverbose-asm -o ../Bin/./UncaughtExceptions/uncaughtExceptions.cpp.g++-7.s ./UncaughtExceptions/uncaughtExceptions.cpp >> ../Logs/errors.txt	t = 0.371
g++-7 -o ../Bin/./UncaughtExceptions/uncaughtExceptions.cpp.g++-7.sh ../Bin/./UncaughtExceptions/uncaughtExceptions.cpp.g++-7.s >> ../Logs/errors.txt	t = 0.092
g++-7 -S -std=c++17 -fverbose-asm -o ../Bin/./UtilitiesLibrary/any.cpp.g++-7.s ./UtilitiesLibrary/any.cpp >> ../Logs/errors.txt	t = 0.441
g++-7 -o ../Bin/./UtilitiesLibrary/any.cpp.g++-7.sh ../Bin/./UtilitiesLibrary/any.cpp.g++-7.s >> ../Logs/errors.txt	t = 0.098
g++-7 -S -std=c++17 -fverbose-asm -o ../Bin/./UtilitiesLibrary/optional.cpp.g++-7.s ./UtilitiesLibrary/optional.cpp >> ../Logs/errors.txt	t = 0.475
g++-7 -o ../Bin/./UtilitiesLibrary/optional.cpp.g++-7.sh ../Bin/./UtilitiesLibrary/optional.cpp.g++-7.s >> ../Logs/errors.txt	t = 0.103
g++-7 -S -std=c++17 -fverbose-asm -o ../Bin/./UtilitiesLibrary/variant.cpp.g++-7.s ./UtilitiesLibrary/variant.cpp >> ../Logs/errors.txt	t = 0.171
g++-7 -o ../Bin/./UtilitiesLibrary/variant.cpp.g++-7.sh ../Bin/./UtilitiesLibrary/variant.cpp.g++-7.s >> ../Logs/errors.txt	t = 0.107

--- URUCHOMIENIE z /media/sf_PMlin/Tests/Added:	pią, 22 mar 2019, 23:10:14 CET
 ../Bin/./ByteType/ByteType.cpp.g++-7.sh	t = 0.585
 ../Bin/./ByteType/NoByteType.cpp.g++-7.sh	t = 0.328
Pominiecie ./Charconv/Charconv.cpp.g++-7.sh (brak pliku)	 = ?.???
 ../Bin/./Charconv/NoCharconvStringstream.cpp.g++-7.sh	t = 0.900
 ../Bin/./Charconv/NoCharconvStrtod_to_string.cpp.g++-7.sh	t = 0.590
Pominiecie ./Filesystem/FileSystem.cpp.g++-7.sh (brak pliku)	 = ?.???
 ../Bin/./Filesystem/NoFileSystem.cpp.g++-7.sh	t = 5.288
 ../Bin/./FoldExpressions/FoldExpressions.cpp.g++-7.sh	t = 0.002
 ../Bin/./FoldExpressions/NoFoldExpressions.cpp.g++-7.sh	t = 0.004
 ../Bin/./Ifconstexpr/IfConstexpr.cpp.g++-7.sh	t = 1.358
 ../Bin/./Ifconstexpr/NoIfConstexprAltern.cpp.g++-7.sh	t = 1.374
Pominiecie ./Ifconstexpr/NoIfConstexprExpectedError.cpp.g++-7.sh (brak pliku)	 = ?.???
 ../Bin/./Inline/Inline.cpp.g++-7.sh	t = 0.002
 ../Bin/./NewAtributes/newAttributes.cpp.g++-7.sh	t = 0.003
Pominiecie ./Parallell/Par.cpp.g++-7.sh (brak pliku)	 = ?.???
Pominiecie ./Parallell/ParUnseq.cpp.g++-7.sh (brak pliku)	 = ?.???
Pominiecie ./Parallell/Seq.cpp.g++-7.sh (brak pliku)	 = ?.???
 ../Bin/./StringView/NoStringView.cpp.g++-7.sh	t = 0.343
 ../Bin/./StringView/StringView.cpp.g++-7.sh 	[EXECUTION ERROR]
 ../Bin/./StructuredBindings/NoStructuredBindings.cpp.g++-7.sh	t = 0.617
 ../Bin/./StructuredBindings/Structuredbindings.cpp.g++-7.sh	t = 0.599
~Foo() called during stack unwinding
~Foo() called normally
~Foo() called during stack unwinding
~Foo() called normally
~Foo() called during stack unwinding
~Foo() called normally
 ../Bin/./UncaughtExceptions/uncaughtExceptions.cpp.g++-7.sh	t = 0.003
 ../Bin/./UtilitiesLibrary/any.cpp.g++-7.sh	t = 0.005
 ../Bin/./UtilitiesLibrary/optional.cpp.g++-7.sh	t = 0.007
 ../Bin/./UtilitiesLibrary/variant.cpp.g++-7.sh	t = 0.006

--- KOMPILACJA z /media/sf_PMlin/Tests/Deleted	pią, 22 mar 2019, 23:12:10 CET
g++-7 -S -std=c++17 -fverbose-asm -o ../Bin/./AutoPtr/AutoPtr.cpp.g++-7.s ./AutoPtr/AutoPtr.cpp >> ../Logs/errors.txt	t = 0.474
g++-7 -o ../Bin/./AutoPtr/AutoPtr.cpp.g++-7.sh ../Bin/./AutoPtr/AutoPtr.cpp.g++-7.s >> ../Logs/errors.txt	t = 0.104
g++-7 -S -std=c++17 -fverbose-asm -o ../Bin/./BoolIncrementation/BoolIncrementation.cpp.g++-7.s ./BoolIncrementation/BoolIncrementation.cpp >> ../Logs/errors.txt 	[EXECUTION ERROR]
g++-7 -o ../Bin/./BoolIncrementation/BoolIncrementation.cpp.g++-7.sh ../Bin/./BoolIncrementation/BoolIncrementation.cpp.g++-7.s >> ../Logs/errors.txt 	[EXECUTION ERROR]
g++-7 -S -std=c++17 -fverbose-asm -o ../Bin/./MemFun/memFun.cpp.g++-7.s ./MemFun/memFun.cpp >> ../Logs/errors.txt	t = 0.633
g++-7 -o ../Bin/./MemFun/memFun.cpp.g++-7.sh ../Bin/./MemFun/memFun.cpp.g++-7.s >> ../Logs/errors.txt	t = 0.115
g++-7 -S -std=c++17 -fverbose-asm -o ../Bin/./PointerToUnaryBinaryFunction/pointerToUnaryBinaryFunction.cpp.g++-7.s ./PointerToUnaryBinaryFunction/pointerToUnaryBinaryFunction.cpp >> ../Logs/errors.txt	t = 0.623
g++-7 -o ../Bin/./PointerToUnaryBinaryFunction/pointerToUnaryBinaryFunction.cpp.g++-7.sh ../Bin/./PointerToUnaryBinaryFunction/pointerToUnaryBinaryFunction.cpp.g++-7.s >> ../Logs/errors.txt	t = 0.107
g++-7 -S -std=c++17 -fverbose-asm -o ../Bin/./RandomShuffle/randomShuffle.cpp.g++-7.s ./RandomShuffle/randomShuffle.cpp >> ../Logs/errors.txt	t = 0.277
g++-7 -o ../Bin/./RandomShuffle/randomShuffle.cpp.g++-7.sh ../Bin/./RandomShuffle/randomShuffle.cpp.g++-7.s >> ../Logs/errors.txt	t = 0.102
g++-7 -S -std=c++17 -fverbose-asm -o ../Bin/./Register/Register.cpp.g++-7.s ./Register/Register.cpp >> ../Logs/errors.txt	t = 0.035
g++-7 -o ../Bin/./Register/Register.cpp.g++-7.sh ../Bin/./Register/Register.cpp.g++-7.s >> ../Logs/errors.txt	t = 0.053
g++-7 -S -std=c++17 -fverbose-asm -o ../Bin/./Throw()/throw().cpp.g++-7.s ./Throw()/throw().cpp >> ../Logs/errors.txt 	[EXECUTION ERROR]
g++-7 -o ../Bin/./Throw()/throw().cpp.g++-7.sh ../Bin/./Throw()/throw().cpp.g++-7.s >> ../Logs/errors.txt 	[EXECUTION ERROR]
g++-7 -S -std=c++17 -fverbose-asm -o ../Bin/./Trigraphs/Trigraphs.cpp.g++-7.s ./Trigraphs/Trigraphs.cpp >> ../Logs/errors.txt 	[EXECUTION ERROR]
g++-7 -o ../Bin/./Trigraphs/Trigraphs.cpp.g++-7.sh ../Bin/./Trigraphs/Trigraphs.cpp.g++-7.s >> ../Logs/errors.txt 	[EXECUTION ERROR]
g++-7 -S -std=c++17 -fverbose-asm -o ../Bin/./UnaryBinaryFunction/unaryBinaryFunction.cpp.g++-7.s ./UnaryBinaryFunction/unaryBinaryFunction.cpp >> ../Logs/errors.txt	t = 0.661
g++-7 -o ../Bin/./UnaryBinaryFunction/unaryBinaryFunction.cpp.g++-7.sh ../Bin/./UnaryBinaryFunction/unaryBinaryFunction.cpp.g++-7.s >> ../Logs/errors.txt	t = 0.112

--- URUCHOMIENIE z /media/sf_PMlin/Tests/Deleted:	pią, 22 mar 2019, 23:12:21 CET
t2 10
t2 10
t2 10
 ../Bin/./AutoPtr/AutoPtr.cpp.g++-7.sh	t = 0.005
Pominiecie ./BoolIncrementation/BoolIncrementation.cpp.g++-7.sh (brak pliku)	 = ?.???
 ../Bin/./MemFun/memFun.cpp.g++-7.sh	t = 0.005
 ../Bin/./PointerToUnaryBinaryFunction/pointerToUnaryBinaryFunction.cpp.g++-7.sh	t = 0.005
 ../Bin/./RandomShuffle/randomShuffle.cpp.g++-7.sh	t = 0.007
 ../Bin/./Register/Register.cpp.g++-7.sh	t = 0.003
Pominiecie ./Throw()/throw().cpp.g++-7.sh (brak pliku)	 = ?.???
Pominiecie ./Trigraphs/Trigraphs.cpp.g++-7.sh (brak pliku)	 = ?.???
666 ../Bin/./UnaryBinaryFunction/unaryBinaryFunction.cpp.g++-7.sh	t = 0.008

--- KOMPILACJA z /media/sf_PMlin/Tests/Quaint	pią, 22 mar 2019, 23:12:38 CET
g++-7 -S -std=c++17 -fverbose-asm -o ../Bin/RVO/WithRVO.g++-7.s RVO/RVO.cpp >> ../Logs/errors.txt	t = 0.040
g++-7 -o ../Bin/RVO/WithRVO.g++-7.sh ../Bin/RVO/WithRVO.g++-7.s >> ../Logs/errors.txt	t = 0.045
g++-7 -S -std=c++17 -fverbose-asm -fno-elide-constructors -o ../Bin/RVO/WithoutRVO.g++-7.s RVO/RVO.cpp >> ../Logs/errors.txt	t = 0.042
g++-7 -o ../Bin/RVO/WithoutRVO.g++-7.sh ../Bin/RVO/WithoutRVO.g++-7.s >> ../Logs/errors.txt	t = 0.045

--- URUCHOMIENIE z /media/sf_PMlin/Tests/Quaint:	pią, 22 mar 2019, 23:12:39 CET
 ../Bin/RVO/WithRVO.g++-7.sh	t = 0.002
 ../Bin/RVO/WithoutRVO.g++-7.sh	t = 1.998
