,,,
--- KOMPILACJA z /media/sf_PMlin/Tests/Added,pią, 22 mar 2019, 23:10:51 CET
g++-8 -S -std=c++17 -fverbose-asm -o ../Bin/./ByteType/ByteType.cpp.g++-8.s ./ByteType/ByteType.cpp >> ../Logs/errors.txt,t = 0.046,,
g++-8 -o ../Bin/./ByteType/ByteType.cpp.g++-8.sh ../Bin/./ByteType/ByteType.cpp.g++-8.s >> ../Logs/errors.txt,t = 0.046,,
g++-8 -S -std=c++17 -fverbose-asm -o ../Bin/./ByteType/NoByteType.cpp.g++-8.s ./ByteType/NoByteType.cpp >> ../Logs/errors.txt,t = 0.043,,
g++-8 -o ../Bin/./ByteType/NoByteType.cpp.g++-8.sh ../Bin/./ByteType/NoByteType.cpp.g++-8.s >> ../Logs/errors.txt,t = 0.052,,
g++-8 -S -std=c++17 -fverbose-asm -o ../Bin/./Charconv/Charconv.cpp.g++-8.s ./Charconv/Charconv.cpp >> ../Logs/errors.txt,t = 0.461,,
g++-8 -o ../Bin/./Charconv/Charconv.cpp.g++-8.sh ../Bin/./Charconv/Charconv.cpp.g++-8.s >> ../Logs/errors.txt,t = 0.096,,
g++-8 -S -std=c++17 -fverbose-asm -o ../Bin/./Charconv/NoCharconvStringstream.cpp.g++-8.s ./Charconv/NoCharconvStringstream.cpp >> ../Logs/errors.txt,t = 0.406,,
g++-8 -o ../Bin/./Charconv/NoCharconvStringstream.cpp.g++-8.sh ../Bin/./Charconv/NoCharconvStringstream.cpp.g++-8.s >> ../Logs/errors.txt,t = 0.103,,
g++-8 -S -std=c++17 -fverbose-asm -o ../Bin/./Charconv/NoCharconvStrtod_to_string.cpp.g++-8.s ./Charconv/NoCharconvStrtod_to_string.cpp >> ../Logs/errors.txt,t = 0.458,,
g++-8 -o ../Bin/./Charconv/NoCharconvStrtod_to_string.cpp.g++-8.sh ../Bin/./Charconv/NoCharconvStrtod_to_string.cpp.g++-8.s >> ../Logs/errors.txt,t = 0.112,,
g++-8 -S -std=c++17 -fverbose-asm -o ../Bin/./Filesystem/FileSystem.cpp.g++-8.s ./Filesystem/FileSystem.cpp >> ../Logs/errors.txt ,[EXECUTION ERROR],,
g++-8 -o ../Bin/./Filesystem/FileSystem.cpp.g++-8.sh ../Bin/./Filesystem/FileSystem.cpp.g++-8.s >> ../Logs/errors.txt ,[EXECUTION ERROR],,
g++-8 -S -std=c++17 -fverbose-asm -o ../Bin/./Filesystem/NoFileSystem.cpp.g++-8.s ./Filesystem/NoFileSystem.cpp >> ../Logs/errors.txt,t = 0.476,,
g++-8 -o ../Bin/./Filesystem/NoFileSystem.cpp.g++-8.sh ../Bin/./Filesystem/NoFileSystem.cpp.g++-8.s >> ../Logs/errors.txt,t = 0.102,,
g++-8 -S -std=c++17 -fverbose-asm -o ../Bin/./FoldExpressions/FoldExpressions.cpp.g++-8.s ./FoldExpressions/FoldExpressions.cpp >> ../Logs/errors.txt,t = 0.042,,
g++-8 -o ../Bin/./FoldExpressions/FoldExpressions.cpp.g++-8.sh ../Bin/./FoldExpressions/FoldExpressions.cpp.g++-8.s >> ../Logs/errors.txt,t = 0.045,,
g++-8 -S -std=c++17 -fverbose-asm -o ../Bin/./FoldExpressions/NoFoldExpressions.cpp.g++-8.s ./FoldExpressions/NoFoldExpressions.cpp >> ../Logs/errors.txt,t = 0.047,,
g++-8 -o ../Bin/./FoldExpressions/NoFoldExpressions.cpp.g++-8.sh ../Bin/./FoldExpressions/NoFoldExpressions.cpp.g++-8.s >> ../Logs/errors.txt,t = 0.046,,
g++-8 -S -std=c++17 -fverbose-asm -o ../Bin/./Ifconstexpr/IfConstexpr.cpp.g++-8.s ./Ifconstexpr/IfConstexpr.cpp >> ../Logs/errors.txt,t = 0.441,,
g++-8 -o ../Bin/./Ifconstexpr/IfConstexpr.cpp.g++-8.sh ../Bin/./Ifconstexpr/IfConstexpr.cpp.g++-8.s >> ../Logs/errors.txt,t = 0.100,,
g++-8 -S -std=c++17 -fverbose-asm -o ../Bin/./Ifconstexpr/NoIfConstexprAltern.cpp.g++-8.s ./Ifconstexpr/NoIfConstexprAltern.cpp >> ../Logs/errors.txt,t = 0.435,,
g++-8 -o ../Bin/./Ifconstexpr/NoIfConstexprAltern.cpp.g++-8.sh ../Bin/./Ifconstexpr/NoIfConstexprAltern.cpp.g++-8.s >> ../Logs/errors.txt,t = 0.109,,
g++-8 -S -std=c++17 -fverbose-asm -o ../Bin/./Ifconstexpr/NoIfConstexprExpectedError.cpp.g++-8.s ./Ifconstexpr/NoIfConstexprExpectedError.cpp >> ../Logs/errors.txt ,[EXECUTION ERROR],,
g++-8 -o ../Bin/./Ifconstexpr/NoIfConstexprExpectedError.cpp.g++-8.sh ../Bin/./Ifconstexpr/NoIfConstexprExpectedError.cpp.g++-8.s >> ../Logs/errors.txt ,[EXECUTION ERROR],,
g++-8 -S -std=c++17 -fverbose-asm -o ../Bin/./Inline/Inline.cpp.g++-8.s ./Inline/Inline.cpp >> ../Logs/errors.txt,t = 0.428,,
g++-8 -o ../Bin/./Inline/Inline.cpp.g++-8.sh ../Bin/./Inline/Inline.cpp.g++-8.s >> ../Logs/errors.txt,t = 0.100,,
g++-8 -S -std=c++17 -fverbose-asm -o ../Bin/./NewAtributes/newAttributes.cpp.g++-8.s ./NewAtributes/newAttributes.cpp >> ../Logs/errors.txt,t = 0.040,,
g++-8 -o ../Bin/./NewAtributes/newAttributes.cpp.g++-8.sh ../Bin/./NewAtributes/newAttributes.cpp.g++-8.s >> ../Logs/errors.txt,t = 0.057,,
g++-8 -S -std=c++17 -fverbose-asm -o ../Bin/./Parallell/Par.cpp.g++-8.s ./Parallell/Par.cpp >> ../Logs/errors.txt ,[EXECUTION ERROR],,
g++-8 -o ../Bin/./Parallell/Par.cpp.g++-8.sh ../Bin/./Parallell/Par.cpp.g++-8.s >> ../Logs/errors.txt ,[EXECUTION ERROR],,
g++-8 -S -std=c++17 -fverbose-asm -o ../Bin/./Parallell/ParUnseq.cpp.g++-8.s ./Parallell/ParUnseq.cpp >> ../Logs/errors.txt ,[EXECUTION ERROR],,
g++-8 -o ../Bin/./Parallell/ParUnseq.cpp.g++-8.sh ../Bin/./Parallell/ParUnseq.cpp.g++-8.s >> ../Logs/errors.txt ,[EXECUTION ERROR],,
g++-8 -S -std=c++17 -fverbose-asm -o ../Bin/./Parallell/Seq.cpp.g++-8.s ./Parallell/Seq.cpp >> ../Logs/errors.txt ,[EXECUTION ERROR],,
g++-8 -o ../Bin/./Parallell/Seq.cpp.g++-8.sh ../Bin/./Parallell/Seq.cpp.g++-8.s >> ../Logs/errors.txt ,[EXECUTION ERROR],,
g++-8 -S -std=c++17 -fverbose-asm -o ../Bin/./StringView/NoStringView.cpp.g++-8.s ./StringView/NoStringView.cpp >> ../Logs/errors.txt,t = 0.466,,
g++-8 -o ../Bin/./StringView/NoStringView.cpp.g++-8.sh ../Bin/./StringView/NoStringView.cpp.g++-8.s >> ../Logs/errors.txt,t = 0.100,,
g++-8 -S -std=c++17 -fverbose-asm -o ../Bin/./StringView/StringView.cpp.g++-8.s ./StringView/StringView.cpp >> ../Logs/errors.txt,t = 0.439,,
g++-8 -o ../Bin/./StringView/StringView.cpp.g++-8.sh ../Bin/./StringView/StringView.cpp.g++-8.s >> ../Logs/errors.txt,t = 0.109,,
g++-8 -S -std=c++17 -fverbose-asm -o ../Bin/./StructuredBindings/NoStructuredBindings.cpp.g++-8.s ./StructuredBindings/NoStructuredBindings.cpp >> ../Logs/errors.txt,t = 0.589,,
g++-8 -o ../Bin/./StructuredBindings/NoStructuredBindings.cpp.g++-8.sh ../Bin/./StructuredBindings/NoStructuredBindings.cpp.g++-8.s >> ../Logs/errors.txt,t = 0.129,,
g++-8 -S -std=c++17 -fverbose-asm -o ../Bin/./StructuredBindings/Structuredbindings.cpp.g++-8.s ./StructuredBindings/Structuredbindings.cpp >> ../Logs/errors.txt,t = 0.586,,
g++-8 -o ../Bin/./StructuredBindings/Structuredbindings.cpp.g++-8.sh ../Bin/./StructuredBindings/Structuredbindings.cpp.g++-8.s >> ../Logs/errors.txt,t = 0.127,,
g++-8 -S -std=c++17 -fverbose-asm -o ../Bin/./UncaughtExceptions/uncaughtExceptions.cpp.g++-8.s ./UncaughtExceptions/uncaughtExceptions.cpp >> ../Logs/errors.txt,t = 0.375,,
g++-8 -o ../Bin/./UncaughtExceptions/uncaughtExceptions.cpp.g++-8.sh ../Bin/./UncaughtExceptions/uncaughtExceptions.cpp.g++-8.s >> ../Logs/errors.txt,t = 0.101,,
g++-8 -S -std=c++17 -fverbose-asm -o ../Bin/./UtilitiesLibrary/any.cpp.g++-8.s ./UtilitiesLibrary/any.cpp >> ../Logs/errors.txt,t = 0.440,,
g++-8 -o ../Bin/./UtilitiesLibrary/any.cpp.g++-8.sh ../Bin/./UtilitiesLibrary/any.cpp.g++-8.s >> ../Logs/errors.txt,t = 0.110,,
g++-8 -S -std=c++17 -fverbose-asm -o ../Bin/./UtilitiesLibrary/optional.cpp.g++-8.s ./UtilitiesLibrary/optional.cpp >> ../Logs/errors.txt,t = 0.484,,
g++-8 -o ../Bin/./UtilitiesLibrary/optional.cpp.g++-8.sh ../Bin/./UtilitiesLibrary/optional.cpp.g++-8.s >> ../Logs/errors.txt,t = 0.113,,
g++-8 -S -std=c++17 -fverbose-asm -o ../Bin/./UtilitiesLibrary/variant.cpp.g++-8.s ./UtilitiesLibrary/variant.cpp >> ../Logs/errors.txt,t = 0.176,,
g++-8 -o ../Bin/./UtilitiesLibrary/variant.cpp.g++-8.sh ../Bin/./UtilitiesLibrary/variant.cpp.g++-8.s >> ../Logs/errors.txt,t = 0.097,,
,,,
--- URUCHOMIENIE z /media/sf_PMlin/Tests/Added:,pią, 22 mar 2019, 23:11:22 CET
 ../Bin/./ByteType/ByteType.cpp.g++-8.sh,t = 0.577,,
 ../Bin/./ByteType/NoByteType.cpp.g++-8.sh,t = 0.329,,
 ../Bin/./Charconv/Charconv.cpp.g++-8.sh,t = 0.097,,
 ../Bin/./Charconv/NoCharconvStringstream.cpp.g++-8.sh,t = 0.887,,
 ../Bin/./Charconv/NoCharconvStrtod_to_string.cpp.g++-8.sh,t = 0.578,,
Pominiecie ./Filesystem/FileSystem.cpp.g++-8.sh (brak pliku), = ?.???,,
 ../Bin/./Filesystem/NoFileSystem.cpp.g++-8.sh,t = 5.430,,
 ../Bin/./FoldExpressions/FoldExpressions.cpp.g++-8.sh,t = 0.002,,
 ../Bin/./FoldExpressions/NoFoldExpressions.cpp.g++-8.sh,t = 0.004,,
 ../Bin/./Ifconstexpr/IfConstexpr.cpp.g++-8.sh,t = 1.366,,
 ../Bin/./Ifconstexpr/NoIfConstexprAltern.cpp.g++-8.sh,t = 1.356,,
Pominiecie ./Ifconstexpr/NoIfConstexprExpectedError.cpp.g++-8.sh (brak pliku), = ?.???,,
 ../Bin/./Inline/Inline.cpp.g++-8.sh,t = 0.002,,
 ../Bin/./NewAtributes/newAttributes.cpp.g++-8.sh,t = 0.003,,
Pominiecie ./Parallell/Par.cpp.g++-8.sh (brak pliku), = ?.???,,
Pominiecie ./Parallell/ParUnseq.cpp.g++-8.sh (brak pliku), = ?.???,,
Pominiecie ./Parallell/Seq.cpp.g++-8.sh (brak pliku), = ?.???,,
 ../Bin/./StringView/NoStringView.cpp.g++-8.sh,t = 0.349,,
 ../Bin/./StringView/StringView.cpp.g++-8.sh ,t= 0.159,,
 ../Bin/./StructuredBindings/NoStructuredBindings.cpp.g++-8.sh,t = 0.627,,
 ../Bin/./StructuredBindings/Structuredbindings.cpp.g++-8.sh,t = 0.603,,
~Foo() called during stack unwinding,,,
~Foo() called normally,,,
~Foo() called during stack unwinding,,,
~Foo() called normally,,,
~Foo() called during stack unwinding,,,
~Foo() called normally,,,
 ../Bin/./UncaughtExceptions/uncaughtExceptions.cpp.g++-8.sh,t = 0.003,,
 ../Bin/./UtilitiesLibrary/any.cpp.g++-8.sh,t = 0.006,,
 ../Bin/./UtilitiesLibrary/optional.cpp.g++-8.sh,t = 0.004,,
 ../Bin/./UtilitiesLibrary/variant.cpp.g++-8.sh,t = 0.006,,
,,,
--- KOMPILACJA z /media/sf_PMlin/Tests/Deleted,pią, 22 mar 2019, 23:12:21 CET
g++-8 -S -std=c++17 -fverbose-asm -o ../Bin/./AutoPtr/AutoPtr.cpp.g++-8.s ./AutoPtr/AutoPtr.cpp >> ../Logs/errors.txt,t = 0.447,,
g++-8 -o ../Bin/./AutoPtr/AutoPtr.cpp.g++-8.sh ../Bin/./AutoPtr/AutoPtr.cpp.g++-8.s >> ../Logs/errors.txt,t = 0.093,,
g++-8 -S -std=c++17 -fverbose-asm -o ../Bin/./BoolIncrementation/BoolIncrementation.cpp.g++-8.s ./BoolIncrementation/BoolIncrementation.cpp >> ../Logs/errors.txt ,[EXECUTION ERROR],,
g++-8 -o ../Bin/./BoolIncrementation/BoolIncrementation.cpp.g++-8.sh ../Bin/./BoolIncrementation/BoolIncrementation.cpp.g++-8.s >> ../Logs/errors.txt ,[EXECUTION ERROR],,
g++-8 -S -std=c++17 -fverbose-asm -o ../Bin/./MemFun/memFun.cpp.g++-8.s ./MemFun/memFun.cpp >> ../Logs/errors.txt,t = 0.661,,
g++-8 -o ../Bin/./MemFun/memFun.cpp.g++-8.sh ../Bin/./MemFun/memFun.cpp.g++-8.s >> ../Logs/errors.txt,t = 0.119,,
g++-8 -S -std=c++17 -fverbose-asm -o ../Bin/./PointerToUnaryBinaryFunction/pointerToUnaryBinaryFunction.cpp.g++-8.s ./PointerToUnaryBinaryFunction/pointerToUnaryBinaryFunction.cpp >> ../Logs/errors.txt,t = 0.652,,
g++-8 -o ../Bin/./PointerToUnaryBinaryFunction/pointerToUnaryBinaryFunction.cpp.g++-8.sh ../Bin/./PointerToUnaryBinaryFunction/pointerToUnaryBinaryFunction.cpp.g++-8.s >> ../Logs/errors.txt,t = 0.107,,
g++-8 -S -std=c++17 -fverbose-asm -o ../Bin/./RandomShuffle/randomShuffle.cpp.g++-8.s ./RandomShuffle/randomShuffle.cpp >> ../Logs/errors.txt,t = 0.286,,
g++-8 -o ../Bin/./RandomShuffle/randomShuffle.cpp.g++-8.sh ../Bin/./RandomShuffle/randomShuffle.cpp.g++-8.s >> ../Logs/errors.txt,t = 0.098,,
g++-8 -S -std=c++17 -fverbose-asm -o ../Bin/./Register/Register.cpp.g++-8.s ./Register/Register.cpp >> ../Logs/errors.txt,t = 0.038,,
g++-8 -o ../Bin/./Register/Register.cpp.g++-8.sh ../Bin/./Register/Register.cpp.g++-8.s >> ../Logs/errors.txt,t = 0.057,,
g++-8 -S -std=c++17 -fverbose-asm -o ../Bin/./Throw()/throw().cpp.g++-8.s ./Throw()/throw().cpp >> ../Logs/errors.txt ,[EXECUTION ERROR],,
g++-8 -o ../Bin/./Throw()/throw().cpp.g++-8.sh ../Bin/./Throw()/throw().cpp.g++-8.s >> ../Logs/errors.txt ,[EXECUTION ERROR],,
g++-8 -S -std=c++17 -fverbose-asm -o ../Bin/./Trigraphs/Trigraphs.cpp.g++-8.s ./Trigraphs/Trigraphs.cpp >> ../Logs/errors.txt ,[EXECUTION ERROR],,
g++-8 -o ../Bin/./Trigraphs/Trigraphs.cpp.g++-8.sh ../Bin/./Trigraphs/Trigraphs.cpp.g++-8.s >> ../Logs/errors.txt ,[EXECUTION ERROR],,
g++-8 -S -std=c++17 -fverbose-asm -o ../Bin/./UnaryBinaryFunction/unaryBinaryFunction.cpp.g++-8.s ./UnaryBinaryFunction/unaryBinaryFunction.cpp >> ../Logs/errors.txt,t = 0.703,,
g++-8 -o ../Bin/./UnaryBinaryFunction/unaryBinaryFunction.cpp.g++-8.sh ../Bin/./UnaryBinaryFunction/unaryBinaryFunction.cpp.g++-8.s >> ../Logs/errors.txt,t = 0.113,,
,,,
--- URUCHOMIENIE z /media/sf_PMlin/Tests/Deleted:,pią, 22 mar 2019, 23:12:31 CET
t2 10,,,
t2 10,,,
t2 10,,,
 ../Bin/./AutoPtr/AutoPtr.cpp.g++-8.sh,t = 0.002,,
Pominiecie ./BoolIncrementation/BoolIncrementation.cpp.g++-8.sh (brak pliku), = ?.???,,
 ../Bin/./MemFun/memFun.cpp.g++-8.sh,t = 0.005,,
 ../Bin/./PointerToUnaryBinaryFunction/pointerToUnaryBinaryFunction.cpp.g++-8.sh,t = 0.005,,
 ../Bin/./RandomShuffle/randomShuffle.cpp.g++-8.sh,t = 0.005,,
 ../Bin/./Register/Register.cpp.g++-8.sh,t = 0.003,,
Pominiecie ./Throw()/throw().cpp.g++-8.sh (brak pliku), = ?.???,,
Pominiecie ./Trigraphs/Trigraphs.cpp.g++-8.sh (brak pliku), = ?.???,,
666 ../Bin/./UnaryBinaryFunction/unaryBinaryFunction.cpp.g++-8.sh,t = 0.005,,
,,,
--- KOMPILACJA z /media/sf_PMlin/Tests/Quaint,pią, 22 mar 2019, 23:12:45 CET
g++-8 -S -std=c++17 -fverbose-asm -o ../Bin/RVO/WithRVO.g++-8.s RVO/RVO.cpp >> ../Logs/errors.txt,t = 0.041,,
g++-8 -o ../Bin/RVO/WithRVO.g++-8.sh ../Bin/RVO/WithRVO.g++-8.s >> ../Logs/errors.txt,t = 0.056,,
g++-8 -S -std=c++17 -fverbose-asm -fno-elide-constructors -o ../Bin/RVO/WithoutRVO.g++-8.s RVO/RVO.cpp >> ../Logs/errors.txt,t = 0.044,,
g++-8 -o ../Bin/RVO/WithoutRVO.g++-8.sh ../Bin/RVO/WithoutRVO.g++-8.s >> ../Logs/errors.txt,t = 0.046,,
,,,
--- URUCHOMIENIE z /media/sf_PMlin/Tests/Quaint:,pią, 22 mar 2019, 23:12:45 CET
 ../Bin/RVO/WithRVO.g++-8.sh,t = 0.002,,
 ../Bin/RVO/WithoutRVO.g++-8.sh,t = 1.956,,
